{
	"info": {
		"_postman_id": "547c5044-864d-4ef3-a1fc-3e964d76055b",
		"name": "Sabre-Tasks",
		"schema": "https://schema.getpostman.com/json/collection/v2.1.0/collection.json"
	},
	"item": [
		{
			"name": "Get Symbols",
			"request": {
				"method": "GET",
				"header": [],
				"url": {
					"raw": "http://localhost:5000/api/currency/symbols",
					"protocol": "http",
					"host": [
						"localhost"
					],
					"port": "5000",
					"path": [
						"api",
						"currency",
						"symbols"
					]
				}
			},
			"response": [
				{
					"name": "Get Symbols",
					"originalRequest": {
						"method": "GET",
						"header": [],
						"url": {
							"raw": "Success",
							"host": [
								"Success"
							]
						}
					},
					"status": "OK",
					"code": 200,
					"_postman_previewlanguage": "json",
					"header": [
						{
							"key": "Transfer-Encoding",
							"value": "chunked"
						},
						{
							"key": "Content-Type",
							"value": "application/json; charset=utf-8"
						},
						{
							"key": "Server",
							"value": "Microsoft-IIS/10.0"
						},
						{
							"key": "X-Powered-By",
							"value": "ASP.NET"
						},
						{
							"key": "Date",
							"value": "Sat, 13 Nov 2021 05:16:15 GMT"
						}
					],
					"cookie": [],
					"body": "{\n    \"data\": [\n        {\n            \"code\": \"AED\",\n            \"description\": \"United Arab Emirates Dirham\"\n        },\n        {\n            \"code\": \"AFN\",\n            \"description\": \"Afghan Afghani\"\n        },\n        {\n            \"code\": \"ALL\",\n            \"description\": \"Albanian Lek\"\n        },\n        {\n            \"code\": \"AMD\",\n            \"description\": \"Armenian Dram\"\n        },\n        {\n            \"code\": \"ANG\",\n            \"description\": \"Netherlands Antillean Guilder\"\n        },\n        {\n            \"code\": \"AOA\",\n            \"description\": \"Angolan Kwanza\"\n        },\n        {\n            \"code\": \"ARS\",\n            \"description\": \"Argentine Peso\"\n        },\n        {\n            \"code\": \"AUD\",\n            \"description\": \"Australian Dollar\"\n        },\n        {\n            \"code\": \"AWG\",\n            \"description\": \"Aruban Florin\"\n        },\n        {\n            \"code\": \"AZN\",\n            \"description\": \"Azerbaijani Manat\"\n        },\n        {\n            \"code\": \"BAM\",\n            \"description\": \"Bosnia-Herzegovina Convertible Mark\"\n        },\n        {\n            \"code\": \"BBD\",\n            \"description\": \"Barbadian Dollar\"\n        },\n        {\n            \"code\": \"BDT\",\n            \"description\": \"Bangladeshi Taka\"\n        },\n        {\n            \"code\": \"BGN\",\n            \"description\": \"Bulgarian Lev\"\n        },\n        {\n            \"code\": \"BHD\",\n            \"description\": \"Bahraini Dinar\"\n        },\n        {\n            \"code\": \"BIF\",\n            \"description\": \"Burundian Franc\"\n        },\n        {\n            \"code\": \"BMD\",\n            \"description\": \"Bermudan Dollar\"\n        },\n        {\n            \"code\": \"BND\",\n            \"description\": \"Brunei Dollar\"\n        },\n        {\n            \"code\": \"BOB\",\n            \"description\": \"Bolivian Boliviano\"\n        },\n        {\n            \"code\": \"BRL\",\n            \"description\": \"Brazilian Real\"\n        },\n        {\n            \"code\": \"BSD\",\n            \"description\": \"Bahamian Dollar\"\n        },\n        {\n            \"code\": \"BTC\",\n            \"description\": \"Bitcoin\"\n        },\n        {\n            \"code\": \"BTN\",\n            \"description\": \"Bhutanese Ngultrum\"\n        },\n        {\n            \"code\": \"BWP\",\n            \"description\": \"Botswanan Pula\"\n        },\n        {\n            \"code\": \"BYN\",\n            \"description\": \"New Belarusian Ruble\"\n        },\n        {\n            \"code\": \"BYR\",\n            \"description\": \"Belarusian Ruble\"\n        },\n        {\n            \"code\": \"BZD\",\n            \"description\": \"Belize Dollar\"\n        },\n        {\n            \"code\": \"CAD\",\n            \"description\": \"Canadian Dollar\"\n        },\n        {\n            \"code\": \"CDF\",\n            \"description\": \"Congolese Franc\"\n        },\n        {\n            \"code\": \"CHF\",\n            \"description\": \"Swiss Franc\"\n        },\n        {\n            \"code\": \"CLF\",\n            \"description\": \"Chilean Unit of Account (UF)\"\n        },\n        {\n            \"code\": \"CLP\",\n            \"description\": \"Chilean Peso\"\n        },\n        {\n            \"code\": \"CNY\",\n            \"description\": \"Chinese Yuan\"\n        },\n        {\n            \"code\": \"COP\",\n            \"description\": \"Colombian Peso\"\n        },\n        {\n            \"code\": \"CRC\",\n            \"description\": \"Costa Rican Colón\"\n        },\n        {\n            \"code\": \"CUC\",\n            \"description\": \"Cuban Convertible Peso\"\n        },\n        {\n            \"code\": \"CUP\",\n            \"description\": \"Cuban Peso\"\n        },\n        {\n            \"code\": \"CVE\",\n            \"description\": \"Cape Verdean Escudo\"\n        },\n        {\n            \"code\": \"CZK\",\n            \"description\": \"Czech Republic Koruna\"\n        },\n        {\n            \"code\": \"DJF\",\n            \"description\": \"Djiboutian Franc\"\n        },\n        {\n            \"code\": \"DKK\",\n            \"description\": \"Danish Krone\"\n        },\n        {\n            \"code\": \"DOP\",\n            \"description\": \"Dominican Peso\"\n        },\n        {\n            \"code\": \"DZD\",\n            \"description\": \"Algerian Dinar\"\n        },\n        {\n            \"code\": \"EGP\",\n            \"description\": \"Egyptian Pound\"\n        },\n        {\n            \"code\": \"ERN\",\n            \"description\": \"Eritrean Nakfa\"\n        },\n        {\n            \"code\": \"ETB\",\n            \"description\": \"Ethiopian Birr\"\n        },\n        {\n            \"code\": \"EUR\",\n            \"description\": \"Euro\"\n        },\n        {\n            \"code\": \"FJD\",\n            \"description\": \"Fijian Dollar\"\n        },\n        {\n            \"code\": \"FKP\",\n            \"description\": \"Falkland Islands Pound\"\n        },\n        {\n            \"code\": \"GBP\",\n            \"description\": \"British Pound Sterling\"\n        },\n        {\n            \"code\": \"GEL\",\n            \"description\": \"Georgian Lari\"\n        },\n        {\n            \"code\": \"GGP\",\n            \"description\": \"Guernsey Pound\"\n        },\n        {\n            \"code\": \"GHS\",\n            \"description\": \"Ghanaian Cedi\"\n        },\n        {\n            \"code\": \"GIP\",\n            \"description\": \"Gibraltar Pound\"\n        },\n        {\n            \"code\": \"GMD\",\n            \"description\": \"Gambian Dalasi\"\n        },\n        {\n            \"code\": \"GNF\",\n            \"description\": \"Guinean Franc\"\n        },\n        {\n            \"code\": \"GTQ\",\n            \"description\": \"Guatemalan Quetzal\"\n        },\n        {\n            \"code\": \"GYD\",\n            \"description\": \"Guyanaese Dollar\"\n        },\n        {\n            \"code\": \"HKD\",\n            \"description\": \"Hong Kong Dollar\"\n        },\n        {\n            \"code\": \"HNL\",\n            \"description\": \"Honduran Lempira\"\n        },\n        {\n            \"code\": \"HRK\",\n            \"description\": \"Croatian Kuna\"\n        },\n        {\n            \"code\": \"HTG\",\n            \"description\": \"Haitian Gourde\"\n        },\n        {\n            \"code\": \"HUF\",\n            \"description\": \"Hungarian Forint\"\n        },\n        {\n            \"code\": \"IDR\",\n            \"description\": \"Indonesian Rupiah\"\n        },\n        {\n            \"code\": \"ILS\",\n            \"description\": \"Israeli New Sheqel\"\n        },\n        {\n            \"code\": \"IMP\",\n            \"description\": \"Manx pound\"\n        },\n        {\n            \"code\": \"INR\",\n            \"description\": \"Indian Rupee\"\n        },\n        {\n            \"code\": \"IQD\",\n            \"description\": \"Iraqi Dinar\"\n        },\n        {\n            \"code\": \"IRR\",\n            \"description\": \"Iranian Rial\"\n        },\n        {\n            \"code\": \"ISK\",\n            \"description\": \"Icelandic Króna\"\n        },\n        {\n            \"code\": \"JEP\",\n            \"description\": \"Jersey Pound\"\n        },\n        {\n            \"code\": \"JMD\",\n            \"description\": \"Jamaican Dollar\"\n        },\n        {\n            \"code\": \"JOD\",\n            \"description\": \"Jordanian Dinar\"\n        },\n        {\n            \"code\": \"JPY\",\n            \"description\": \"Japanese Yen\"\n        },\n        {\n            \"code\": \"KES\",\n            \"description\": \"Kenyan Shilling\"\n        },\n        {\n            \"code\": \"KGS\",\n            \"description\": \"Kyrgystani Som\"\n        },\n        {\n            \"code\": \"KHR\",\n            \"description\": \"Cambodian Riel\"\n        },\n        {\n            \"code\": \"KMF\",\n            \"description\": \"Comorian Franc\"\n        },\n        {\n            \"code\": \"KPW\",\n            \"description\": \"North Korean Won\"\n        },\n        {\n            \"code\": \"KRW\",\n            \"description\": \"South Korean Won\"\n        },\n        {\n            \"code\": \"KWD\",\n            \"description\": \"Kuwaiti Dinar\"\n        },\n        {\n            \"code\": \"KYD\",\n            \"description\": \"Cayman Islands Dollar\"\n        },\n        {\n            \"code\": \"KZT\",\n            \"description\": \"Kazakhstani Tenge\"\n        },\n        {\n            \"code\": \"LAK\",\n            \"description\": \"Laotian Kip\"\n        },\n        {\n            \"code\": \"LBP\",\n            \"description\": \"Lebanese Pound\"\n        },\n        {\n            \"code\": \"LKR\",\n            \"description\": \"Sri Lankan Rupee\"\n        },\n        {\n            \"code\": \"LRD\",\n            \"description\": \"Liberian Dollar\"\n        },\n        {\n            \"code\": \"LSL\",\n            \"description\": \"Lesotho Loti\"\n        },\n        {\n            \"code\": \"LTL\",\n            \"description\": \"Lithuanian Litas\"\n        },\n        {\n            \"code\": \"LVL\",\n            \"description\": \"Latvian Lats\"\n        },\n        {\n            \"code\": \"LYD\",\n            \"description\": \"Libyan Dinar\"\n        },\n        {\n            \"code\": \"MAD\",\n            \"description\": \"Moroccan Dirham\"\n        },\n        {\n            \"code\": \"MDL\",\n            \"description\": \"Moldovan Leu\"\n        },\n        {\n            \"code\": \"MGA\",\n            \"description\": \"Malagasy Ariary\"\n        },\n        {\n            \"code\": \"MKD\",\n            \"description\": \"Macedonian Denar\"\n        },\n        {\n            \"code\": \"MMK\",\n            \"description\": \"Myanma Kyat\"\n        },\n        {\n            \"code\": \"MNT\",\n            \"description\": \"Mongolian Tugrik\"\n        },\n        {\n            \"code\": \"MOP\",\n            \"description\": \"Macanese Pataca\"\n        },\n        {\n            \"code\": \"MRO\",\n            \"description\": \"Mauritanian Ouguiya\"\n        },\n        {\n            \"code\": \"MUR\",\n            \"description\": \"Mauritian Rupee\"\n        },\n        {\n            \"code\": \"MVR\",\n            \"description\": \"Maldivian Rufiyaa\"\n        },\n        {\n            \"code\": \"MWK\",\n            \"description\": \"Malawian Kwacha\"\n        },\n        {\n            \"code\": \"MXN\",\n            \"description\": \"Mexican Peso\"\n        },\n        {\n            \"code\": \"MYR\",\n            \"description\": \"Malaysian Ringgit\"\n        },\n        {\n            \"code\": \"MZN\",\n            \"description\": \"Mozambican Metical\"\n        },\n        {\n            \"code\": \"NAD\",\n            \"description\": \"Namibian Dollar\"\n        },\n        {\n            \"code\": \"NGN\",\n            \"description\": \"Nigerian Naira\"\n        },\n        {\n            \"code\": \"NIO\",\n            \"description\": \"Nicaraguan Córdoba\"\n        },\n        {\n            \"code\": \"NOK\",\n            \"description\": \"Norwegian Krone\"\n        },\n        {\n            \"code\": \"NPR\",\n            \"description\": \"Nepalese Rupee\"\n        },\n        {\n            \"code\": \"NZD\",\n            \"description\": \"New Zealand Dollar\"\n        },\n        {\n            \"code\": \"OMR\",\n            \"description\": \"Omani Rial\"\n        },\n        {\n            \"code\": \"PAB\",\n            \"description\": \"Panamanian Balboa\"\n        },\n        {\n            \"code\": \"PEN\",\n            \"description\": \"Peruvian Nuevo Sol\"\n        },\n        {\n            \"code\": \"PGK\",\n            \"description\": \"Papua New Guinean Kina\"\n        },\n        {\n            \"code\": \"PHP\",\n            \"description\": \"Philippine Peso\"\n        },\n        {\n            \"code\": \"PKR\",\n            \"description\": \"Pakistani Rupee\"\n        },\n        {\n            \"code\": \"PLN\",\n            \"description\": \"Polish Zloty\"\n        },\n        {\n            \"code\": \"PYG\",\n            \"description\": \"Paraguayan Guarani\"\n        },\n        {\n            \"code\": \"QAR\",\n            \"description\": \"Qatari Rial\"\n        },\n        {\n            \"code\": \"RON\",\n            \"description\": \"Romanian Leu\"\n        },\n        {\n            \"code\": \"RSD\",\n            \"description\": \"Serbian Dinar\"\n        },\n        {\n            \"code\": \"RUB\",\n            \"description\": \"Russian Ruble\"\n        },\n        {\n            \"code\": \"RWF\",\n            \"description\": \"Rwandan Franc\"\n        },\n        {\n            \"code\": \"SAR\",\n            \"description\": \"Saudi Riyal\"\n        },\n        {\n            \"code\": \"SBD\",\n            \"description\": \"Solomon Islands Dollar\"\n        },\n        {\n            \"code\": \"SCR\",\n            \"description\": \"Seychellois Rupee\"\n        },\n        {\n            \"code\": \"SDG\",\n            \"description\": \"Sudanese Pound\"\n        },\n        {\n            \"code\": \"SEK\",\n            \"description\": \"Swedish Krona\"\n        },\n        {\n            \"code\": \"SGD\",\n            \"description\": \"Singapore Dollar\"\n        },\n        {\n            \"code\": \"SHP\",\n            \"description\": \"Saint Helena Pound\"\n        },\n        {\n            \"code\": \"SLL\",\n            \"description\": \"Sierra Leonean Leone\"\n        },\n        {\n            \"code\": \"SOS\",\n            \"description\": \"Somali Shilling\"\n        },\n        {\n            \"code\": \"SRD\",\n            \"description\": \"Surinamese Dollar\"\n        },\n        {\n            \"code\": \"STD\",\n            \"description\": \"São Tomé and Príncipe Dobra\"\n        },\n        {\n            \"code\": \"SVC\",\n            \"description\": \"Salvadoran Colón\"\n        },\n        {\n            \"code\": \"SYP\",\n            \"description\": \"Syrian Pound\"\n        },\n        {\n            \"code\": \"SZL\",\n            \"description\": \"Swazi Lilangeni\"\n        },\n        {\n            \"code\": \"THB\",\n            \"description\": \"Thai Baht\"\n        },\n        {\n            \"code\": \"TJS\",\n            \"description\": \"Tajikistani Somoni\"\n        },\n        {\n            \"code\": \"TMT\",\n            \"description\": \"Turkmenistani Manat\"\n        },\n        {\n            \"code\": \"TND\",\n            \"description\": \"Tunisian Dinar\"\n        },\n        {\n            \"code\": \"TOP\",\n            \"description\": \"Tongan Paʻanga\"\n        },\n        {\n            \"code\": \"TRY\",\n            \"description\": \"Turkish Lira\"\n        },\n        {\n            \"code\": \"TTD\",\n            \"description\": \"Trinidad and Tobago Dollar\"\n        },\n        {\n            \"code\": \"TWD\",\n            \"description\": \"New Taiwan Dollar\"\n        },\n        {\n            \"code\": \"TZS\",\n            \"description\": \"Tanzanian Shilling\"\n        },\n        {\n            \"code\": \"UAH\",\n            \"description\": \"Ukrainian Hryvnia\"\n        },\n        {\n            \"code\": \"UGX\",\n            \"description\": \"Ugandan Shilling\"\n        },\n        {\n            \"code\": \"USD\",\n            \"description\": \"United States Dollar\"\n        },\n        {\n            \"code\": \"UYU\",\n            \"description\": \"Uruguayan Peso\"\n        },\n        {\n            \"code\": \"UZS\",\n            \"description\": \"Uzbekistan Som\"\n        },\n        {\n            \"code\": \"VEF\",\n            \"description\": \"Venezuelan Bolívar Fuerte\"\n        },\n        {\n            \"code\": \"VND\",\n            \"description\": \"Vietnamese Dong\"\n        },\n        {\n            \"code\": \"VUV\",\n            \"description\": \"Vanuatu Vatu\"\n        },\n        {\n            \"code\": \"WST\",\n            \"description\": \"Samoan Tala\"\n        },\n        {\n            \"code\": \"XAF\",\n            \"description\": \"CFA Franc BEAC\"\n        },\n        {\n            \"code\": \"XAG\",\n            \"description\": \"Silver (troy ounce)\"\n        },\n        {\n            \"code\": \"XAU\",\n            \"description\": \"Gold (troy ounce)\"\n        },\n        {\n            \"code\": \"XCD\",\n            \"description\": \"East Caribbean Dollar\"\n        },\n        {\n            \"code\": \"XDR\",\n            \"description\": \"Special Drawing Rights\"\n        },\n        {\n            \"code\": \"XOF\",\n            \"description\": \"CFA Franc BCEAO\"\n        },\n        {\n            \"code\": \"XPF\",\n            \"description\": \"CFP Franc\"\n        },\n        {\n            \"code\": \"YER\",\n            \"description\": \"Yemeni Rial\"\n        },\n        {\n            \"code\": \"ZAR\",\n            \"description\": \"South African Rand\"\n        },\n        {\n            \"code\": \"ZMK\",\n            \"description\": \"Zambian Kwacha (pre-2013)\"\n        },\n        {\n            \"code\": \"ZMW\",\n            \"description\": \"Zambian Kwacha\"\n        },\n        {\n            \"code\": \"ZWL\",\n            \"description\": \"Zimbabwean Dollar\"\n        }\n    ],\n    \"status\": \"success\"\n}"
				}
			]
		},
		{
			"name": "Get Currency Rate",
			"request": {
				"method": "GET",
				"header": [],
				"url": {
					"raw": "http://localhost:5000/api/currency/rates?code=EUR",
					"protocol": "http",
					"host": [
						"localhost"
					],
					"port": "5000",
					"path": [
						"api",
						"currency",
						"rates"
					],
					"query": [
						{
							"key": "code",
							"value": "EUR"
						}
					]
				}
			},
			"response": [
				{
					"name": "example",
					"originalRequest": {
						"method": "GET",
						"header": [],
						"url": {
							"raw": "http://localhost:19879/api/currency/rates?code=EUR",
							"protocol": "http",
							"host": [
								"localhost"
							],
							"port": "19879",
							"path": [
								"api",
								"currency",
								"rates"
							],
							"query": [
								{
									"key": "code",
									"value": "EUR"
								}
							]
						}
					},
					"status": "OK",
					"code": 200,
					"_postman_previewlanguage": "json",
					"header": [
						{
							"key": "Transfer-Encoding",
							"value": "chunked"
						},
						{
							"key": "Content-Type",
							"value": "application/json; charset=utf-8"
						},
						{
							"key": "Server",
							"value": "Microsoft-IIS/10.0"
						},
						{
							"key": "X-Powered-By",
							"value": "ASP.NET"
						},
						{
							"key": "Date",
							"value": "Sat, 13 Nov 2021 06:24:03 GMT"
						}
					],
					"cookie": [],
					"body": "{\n    \"data\": [\n        {\n            \"code\": \"AED\",\n            \"base\": null,\n            \"rate\": \"4.203092\"\n        },\n        {\n            \"code\": \"AFN\",\n            \"base\": null,\n            \"rate\": \"104.64745\"\n        },\n        {\n            \"code\": \"ALL\",\n            \"base\": null,\n            \"rate\": \"122.331114\"\n        },\n        {\n            \"code\": \"AMD\",\n            \"base\": null,\n            \"rate\": \"544.232274\"\n        },\n        {\n            \"code\": \"ANG\",\n            \"base\": null,\n            \"rate\": \"2.062731\"\n        },\n        {\n            \"code\": \"AOA\",\n            \"base\": null,\n            \"rate\": \"683.038776\"\n        },\n        {\n            \"code\": \"ARS\",\n            \"base\": null,\n            \"rate\": \"114.701178\"\n        },\n        {\n            \"code\": \"AUD\",\n            \"base\": null,\n            \"rate\": \"1.560875\"\n        },\n        {\n            \"code\": \"AWG\",\n            \"base\": null,\n            \"rate\": \"2.060041\"\n        },\n        {\n            \"code\": \"AZN\",\n            \"base\": null,\n            \"rate\": \"1.949867\"\n        },\n        {\n            \"code\": \"BAM\",\n            \"base\": null,\n            \"rate\": \"1.955084\"\n        },\n        {\n            \"code\": \"BBD\",\n            \"base\": null,\n            \"rate\": \"2.310938\"\n        },\n        {\n            \"code\": \"BDT\",\n            \"base\": null,\n            \"rate\": \"98.173628\"\n        },\n        {\n            \"code\": \"BGN\",\n            \"base\": null,\n            \"rate\": \"1.955526\"\n        },\n        {\n            \"code\": \"BHD\",\n            \"base\": null,\n            \"rate\": \"0.431728\"\n        },\n        {\n            \"code\": \"BIF\",\n            \"base\": null,\n            \"rate\": \"2285.18354\"\n        },\n        {\n            \"code\": \"BMD\",\n            \"base\": null,\n            \"rate\": \"1.144308\"\n        },\n        {\n            \"code\": \"BND\",\n            \"base\": null,\n            \"rate\": \"1.549463\"\n        },\n        {\n            \"code\": \"BOB\",\n            \"base\": null,\n            \"rate\": \"7.891688\"\n        },\n        {\n            \"code\": \"BRL\",\n            \"base\": null,\n            \"rate\": \"6.247012\"\n        },\n        {\n            \"code\": \"BSD\",\n            \"base\": null,\n            \"rate\": \"1.144573\"\n        },\n        {\n            \"code\": \"BTC\",\n            \"base\": null,\n            \"rate\": \"1.7952598E-05\"\n        },\n        {\n            \"code\": \"BTN\",\n            \"base\": null,\n            \"rate\": \"85.229124\"\n        },\n        {\n            \"code\": \"BWP\",\n            \"base\": null,\n            \"rate\": \"13.125705\"\n        },\n        {\n            \"code\": \"BYN\",\n            \"base\": null,\n            \"rate\": \"2.800664\"\n        },\n        {\n            \"code\": \"BYR\",\n            \"base\": null,\n            \"rate\": \"22428.441357\"\n        },\n        {\n            \"code\": \"BZD\",\n            \"base\": null,\n            \"rate\": \"2.30704\"\n        },\n        {\n            \"code\": \"CAD\",\n            \"base\": null,\n            \"rate\": \"1.436199\"\n        },\n        {\n            \"code\": \"CDF\",\n            \"base\": null,\n            \"rate\": \"2300.059961\"\n        },\n        {\n            \"code\": \"CHF\",\n            \"base\": null,\n            \"rate\": \"1.05408\"\n        },\n        {\n            \"code\": \"CLF\",\n            \"base\": null,\n            \"rate\": \"0.033213\"\n        },\n        {\n            \"code\": \"CLP\",\n            \"base\": null,\n            \"rate\": \"916.45403\"\n        },\n        {\n            \"code\": \"CNY\",\n            \"base\": null,\n            \"rate\": \"7.300234\"\n        },\n        {\n            \"code\": \"COP\",\n            \"base\": null,\n            \"rate\": \"4443.120005\"\n        },\n        {\n            \"code\": \"CRC\",\n            \"base\": null,\n            \"rate\": \"735.475706\"\n        },\n        {\n            \"code\": \"CUC\",\n            \"base\": null,\n            \"rate\": \"1.144308\"\n        },\n        {\n            \"code\": \"CUP\",\n            \"base\": null,\n            \"rate\": \"30.324168\"\n        },\n        {\n            \"code\": \"CVE\",\n            \"base\": null,\n            \"rate\": \"110.626045\"\n        },\n        {\n            \"code\": \"CZK\",\n            \"base\": null,\n            \"rate\": \"25.246305\"\n        },\n        {\n            \"code\": \"DJF\",\n            \"base\": null,\n            \"rate\": \"203.36691\"\n        },\n        {\n            \"code\": \"DKK\",\n            \"base\": null,\n            \"rate\": \"7.436459\"\n        },\n        {\n            \"code\": \"DOP\",\n            \"base\": null,\n            \"rate\": \"64.772293\"\n        },\n        {\n            \"code\": \"DZD\",\n            \"base\": null,\n            \"rate\": \"158.327467\"\n        },\n        {\n            \"code\": \"EGP\",\n            \"base\": null,\n            \"rate\": \"17.999983\"\n        },\n        {\n            \"code\": \"ERN\",\n            \"base\": null,\n            \"rate\": \"17.165333\"\n        },\n        {\n            \"code\": \"ETB\",\n            \"base\": null,\n            \"rate\": \"54.130215\"\n        },\n        {\n            \"code\": \"EUR\",\n            \"base\": null,\n            \"rate\": \"1\"\n        },\n        {\n            \"code\": \"FJD\",\n            \"base\": null,\n            \"rate\": \"2.407477\"\n        },\n        {\n            \"code\": \"FKP\",\n            \"base\": null,\n            \"rate\": \"0.853006\"\n        },\n        {\n            \"code\": \"GBP\",\n            \"base\": null,\n            \"rate\": \"0.853007\"\n        },\n        {\n            \"code\": \"GEL\",\n            \"base\": null,\n            \"rate\": \"3.605018\"\n        },\n        {\n            \"code\": \"GGP\",\n            \"base\": null,\n            \"rate\": \"0.853006\"\n        },\n        {\n            \"code\": \"GHS\",\n            \"base\": null,\n            \"rate\": \"6.997491\"\n        },\n        {\n            \"code\": \"GIP\",\n            \"base\": null,\n            \"rate\": \"0.853006\"\n        },\n        {\n            \"code\": \"GMD\",\n            \"base\": null,\n            \"rate\": \"59.622868\"\n        },\n        {\n            \"code\": \"GNF\",\n            \"base\": null,\n            \"rate\": \"10870.928615\"\n        },\n        {\n            \"code\": \"GTQ\",\n            \"base\": null,\n            \"rate\": \"8.853121\"\n        },\n        {\n            \"code\": \"GYD\",\n            \"base\": null,\n            \"rate\": \"239.458602\"\n        },\n        {\n            \"code\": \"HKD\",\n            \"base\": null,\n            \"rate\": \"8.91534\"\n        },\n        {\n            \"code\": \"HNL\",\n            \"base\": null,\n            \"rate\": \"27.67514\"\n        },\n        {\n            \"code\": \"HRK\",\n            \"base\": null,\n            \"rate\": \"7.510328\"\n        },\n        {\n            \"code\": \"HTG\",\n            \"base\": null,\n            \"rate\": \"113.614635\"\n        },\n        {\n            \"code\": \"HUF\",\n            \"base\": null,\n            \"rate\": \"366.951088\"\n        },\n        {\n            \"code\": \"IDR\",\n            \"base\": null,\n            \"rate\": \"16239.106989\"\n        },\n        {\n            \"code\": \"ILS\",\n            \"base\": null,\n            \"rate\": \"3.558193\"\n        },\n        {\n            \"code\": \"IMP\",\n            \"base\": null,\n            \"rate\": \"0.853006\"\n        },\n        {\n            \"code\": \"INR\",\n            \"base\": null,\n            \"rate\": \"85.073641\"\n        },\n        {\n            \"code\": \"IQD\",\n            \"base\": null,\n            \"rate\": \"1670.690019\"\n        },\n        {\n            \"code\": \"IRR\",\n            \"base\": null,\n            \"rate\": \"48375.630932\"\n        },\n        {\n            \"code\": \"ISK\",\n            \"base\": null,\n            \"rate\": \"150.38543\"\n        },\n        {\n            \"code\": \"JEP\",\n            \"base\": null,\n            \"rate\": \"0.853006\"\n        },\n        {\n            \"code\": \"JMD\",\n            \"base\": null,\n            \"rate\": \"178.173551\"\n        },\n        {\n            \"code\": \"JOD\",\n            \"base\": null,\n            \"rate\": \"0.81136\"\n        },\n        {\n            \"code\": \"JPY\",\n            \"base\": null,\n            \"rate\": \"130.370469\"\n        },\n        {\n            \"code\": \"KES\",\n            \"base\": null,\n            \"rate\": \"128.220178\"\n        },\n        {\n            \"code\": \"KGS\",\n            \"base\": null,\n            \"rate\": \"97.017432\"\n        },\n        {\n            \"code\": \"KHR\",\n            \"base\": null,\n            \"rate\": \"4663.056449\"\n        },\n        {\n            \"code\": \"KMF\",\n            \"base\": null,\n            \"rate\": \"492.110195\"\n        },\n        {\n            \"code\": \"KPW\",\n            \"base\": null,\n            \"rate\": \"1029.87781\"\n        },\n        {\n            \"code\": \"KRW\",\n            \"base\": null,\n            \"rate\": \"1350.220822\"\n        },\n        {\n            \"code\": \"KWD\",\n            \"base\": null,\n            \"rate\": \"0.345868\"\n        },\n        {\n            \"code\": \"KYD\",\n            \"base\": null,\n            \"rate\": \"0.953828\"\n        },\n        {\n            \"code\": \"KZT\",\n            \"base\": null,\n            \"rate\": \"493.467338\"\n        },\n        {\n            \"code\": \"LAK\",\n            \"base\": null,\n            \"rate\": \"12152.553828\"\n        },\n        {\n            \"code\": \"LBP\",\n            \"base\": null,\n            \"rate\": \"1754.22492\"\n        },\n        {\n            \"code\": \"LKR\",\n            \"base\": null,\n            \"rate\": \"231.196735\"\n        },\n        {\n            \"code\": \"LRD\",\n            \"base\": null,\n            \"rate\": \"165.410192\"\n        },\n        {\n            \"code\": \"LSL\",\n            \"base\": null,\n            \"rate\": \"17.513682\"\n        },\n        {\n            \"code\": \"LTL\",\n            \"base\": null,\n            \"rate\": \"3.378845\"\n        },\n        {\n            \"code\": \"LVL\",\n            \"base\": null,\n            \"rate\": \"0.692181\"\n        },\n        {\n            \"code\": \"LYD\",\n            \"base\": null,\n            \"rate\": \"5.229924\"\n        },\n        {\n            \"code\": \"MAD\",\n            \"base\": null,\n            \"rate\": \"10.44797\"\n        },\n        {\n            \"code\": \"MDL\",\n            \"base\": null,\n            \"rate\": \"20.192069\"\n        },\n        {\n            \"code\": \"MGA\",\n            \"base\": null,\n            \"rate\": \"4562.933377\"\n        },\n        {\n            \"code\": \"MKD\",\n            \"base\": null,\n            \"rate\": \"61.578514\"\n        },\n        {\n            \"code\": \"MMK\",\n            \"base\": null,\n            \"rate\": \"2034.738448\"\n        },\n        {\n            \"code\": \"MNT\",\n            \"base\": null,\n            \"rate\": \"3267.900831\"\n        },\n        {\n            \"code\": \"MOP\",\n            \"base\": null,\n            \"rate\": \"9.186813\"\n        },\n        {\n            \"code\": \"MRO\",\n            \"base\": null,\n            \"rate\": \"408.517842\"\n        },\n        {\n            \"code\": \"MUR\",\n            \"base\": null,\n            \"rate\": \"49.461711\"\n        },\n        {\n            \"code\": \"MVR\",\n            \"base\": null,\n            \"rate\": \"17.679995\"\n        },\n        {\n            \"code\": \"MWK\",\n            \"base\": null,\n            \"rate\": \"933.755913\"\n        },\n        {\n            \"code\": \"MXN\",\n            \"base\": null,\n            \"rate\": \"23.481782\"\n        },\n        {\n            \"code\": \"MYR\",\n            \"base\": null,\n            \"rate\": \"4.752889\"\n        },\n        {\n            \"code\": \"MZN\",\n            \"base\": null,\n            \"rate\": \"73.041626\"\n        },\n        {\n            \"code\": \"NAD\",\n            \"base\": null,\n            \"rate\": \"17.519791\"\n        },\n        {\n            \"code\": \"NGN\",\n            \"base\": null,\n            \"rate\": \"469.830506\"\n        },\n        {\n            \"code\": \"NIO\",\n            \"base\": null,\n            \"rate\": \"40.302967\"\n        },\n        {\n            \"code\": \"NOK\",\n            \"base\": null,\n            \"rate\": \"9.940496\"\n        },\n        {\n            \"code\": \"NPR\",\n            \"base\": null,\n            \"rate\": \"136.369141\"\n        },\n        {\n            \"code\": \"NZD\",\n            \"base\": null,\n            \"rate\": \"1.623447\"\n        },\n        {\n            \"code\": \"OMR\",\n            \"base\": null,\n            \"rate\": \"0.440536\"\n        },\n        {\n            \"code\": \"PAB\",\n            \"base\": null,\n            \"rate\": \"1.144563\"\n        },\n        {\n            \"code\": \"PEN\",\n            \"base\": null,\n            \"rate\": \"4.598689\"\n        },\n        {\n            \"code\": \"PGK\",\n            \"base\": null,\n            \"rate\": \"4.033731\"\n        },\n        {\n            \"code\": \"PHP\",\n            \"base\": null,\n            \"rate\": \"57.021308\"\n        },\n        {\n            \"code\": \"PKR\",\n            \"base\": null,\n            \"rate\": \"201.059194\"\n        },\n        {\n            \"code\": \"PLN\",\n            \"base\": null,\n            \"rate\": \"4.638123\"\n        },\n        {\n            \"code\": \"PYG\",\n            \"base\": null,\n            \"rate\": \"7870.495934\"\n        },\n        {\n            \"code\": \"QAR\",\n            \"base\": null,\n            \"rate\": \"4.16647\"\n        },\n        {\n            \"code\": \"RON\",\n            \"base\": null,\n            \"rate\": \"4.947307\"\n        },\n        {\n            \"code\": \"RSD\",\n            \"base\": null,\n            \"rate\": \"117.644285\"\n        },\n        {\n            \"code\": \"RUB\",\n            \"base\": null,\n            \"rate\": \"83.419502\"\n        },\n        {\n            \"code\": \"RWF\",\n            \"base\": null,\n            \"rate\": \"1150.029774\"\n        },\n        {\n            \"code\": \"SAR\",\n            \"base\": null,\n            \"rate\": \"4.291675\"\n        },\n        {\n            \"code\": \"SBD\",\n            \"base\": null,\n            \"rate\": \"9.198673\"\n        },\n        {\n            \"code\": \"SCR\",\n            \"base\": null,\n            \"rate\": \"15.63138\"\n        },\n        {\n            \"code\": \"SDG\",\n            \"base\": null,\n            \"rate\": \"501.207394\"\n        },\n        {\n            \"code\": \"SEK\",\n            \"base\": null,\n            \"rate\": \"10.019338\"\n        },\n        {\n            \"code\": \"SGD\",\n            \"base\": null,\n            \"rate\": \"1.548158\"\n        },\n        {\n            \"code\": \"SHP\",\n            \"base\": null,\n            \"rate\": \"1.576175\"\n        },\n        {\n            \"code\": \"SLL\",\n            \"base\": null,\n            \"rate\": \"12587.390945\"\n        },\n        {\n            \"code\": \"SOS\",\n            \"base\": null,\n            \"rate\": \"668.276395\"\n        },\n        {\n            \"code\": \"SRD\",\n            \"base\": null,\n            \"rate\": \"24.535689\"\n        },\n        {\n            \"code\": \"STD\",\n            \"base\": null,\n            \"rate\": \"23684.870063\"\n        },\n        {\n            \"code\": \"SVC\",\n            \"base\": null,\n            \"rate\": \"10.01509\"\n        },\n        {\n            \"code\": \"SYP\",\n            \"base\": null,\n            \"rate\": \"1438.201688\"\n        },\n        {\n            \"code\": \"SZL\",\n            \"base\": null,\n            \"rate\": \"17.519782\"\n        },\n        {\n            \"code\": \"THB\",\n            \"base\": null,\n            \"rate\": \"37.504746\"\n        },\n        {\n            \"code\": \"TJS\",\n            \"base\": null,\n            \"rate\": \"12.916101\"\n        },\n        {\n            \"code\": \"TMT\",\n            \"base\": null,\n            \"rate\": \"4.005079\"\n        },\n        {\n            \"code\": \"TND\",\n            \"base\": null,\n            \"rate\": \"3.241257\"\n        },\n        {\n            \"code\": \"TOP\",\n            \"base\": null,\n            \"rate\": \"2.584653\"\n        },\n        {\n            \"code\": \"TRY\",\n            \"base\": null,\n            \"rate\": \"11.418484\"\n        },\n        {\n            \"code\": \"TTD\",\n            \"base\": null,\n            \"rate\": \"7.771366\"\n        },\n        {\n            \"code\": \"TWD\",\n            \"base\": null,\n            \"rate\": \"31.807539\"\n        },\n        {\n            \"code\": \"TZS\",\n            \"base\": null,\n            \"rate\": \"2633.053627\"\n        },\n        {\n            \"code\": \"UAH\",\n            \"base\": null,\n            \"rate\": \"29.941633\"\n        },\n        {\n            \"code\": \"UGX\",\n            \"base\": null,\n            \"rate\": \"4040.257886\"\n        },\n        {\n            \"code\": \"USD\",\n            \"base\": null,\n            \"rate\": \"1.144308\"\n        },\n        {\n            \"code\": \"UYU\",\n            \"base\": null,\n            \"rate\": \"49.999479\"\n        },\n        {\n            \"code\": \"UZS\",\n            \"base\": null,\n            \"rate\": \"12266.984635\"\n        },\n        {\n            \"code\": \"VEF\",\n            \"base\": null,\n            \"rate\": \"244687683776.35934\"\n        },\n        {\n            \"code\": \"VND\",\n            \"base\": null,\n            \"rate\": \"25912.859925\"\n        },\n        {\n            \"code\": \"VUV\",\n            \"base\": null,\n            \"rate\": \"127.756541\"\n        },\n        {\n            \"code\": \"WST\",\n            \"base\": null,\n            \"rate\": \"2.938689\"\n        },\n        {\n            \"code\": \"XAF\",\n            \"base\": null,\n            \"rate\": \"655.712453\"\n        },\n        {\n            \"code\": \"XAG\",\n            \"base\": null,\n            \"rate\": \"0.045212\"\n        },\n        {\n            \"code\": \"XAU\",\n            \"base\": null,\n            \"rate\": \"0.000614\"\n        },\n        {\n            \"code\": \"XCD\",\n            \"base\": null,\n            \"rate\": \"3.092551\"\n        },\n        {\n            \"code\": \"XDR\",\n            \"base\": null,\n            \"rate\": \"0.814696\"\n        },\n        {\n            \"code\": \"XOF\",\n            \"base\": null,\n            \"rate\": \"655.120585\"\n        },\n        {\n            \"code\": \"XPF\",\n            \"base\": null,\n            \"rate\": \"119.723292\"\n        },\n        {\n            \"code\": \"YER\",\n            \"base\": null,\n            \"rate\": \"286.363552\"\n        },\n        {\n            \"code\": \"ZAR\",\n            \"base\": null,\n            \"rate\": \"17.523777\"\n        },\n        {\n            \"code\": \"ZMK\",\n            \"base\": null,\n            \"rate\": \"10300.151374\"\n        },\n        {\n            \"code\": \"ZMW\",\n            \"base\": null,\n            \"rate\": \"20.007738\"\n        },\n        {\n            \"code\": \"ZWL\",\n            \"base\": null,\n            \"rate\": \"368.466784\"\n        }\n    ],\n    \"status\": \"success\"\n}"
				}
			]
		},
		{
			"name": "Data Fixer - Symbols",
			"request": {
				"method": "GET",
				"header": [],
				"url": {
					"raw": "http://data.fixer.io/api/symbols?access_key=6eca33dbfe6acfb5e4015adb035d6deb&format=1&symbol=USD",
					"protocol": "http",
					"host": [
						"data",
						"fixer",
						"io"
					],
					"path": [
						"api",
						"symbols"
					],
					"query": [
						{
							"key": "access_key",
							"value": "6eca33dbfe6acfb5e4015adb035d6deb"
						},
						{
							"key": "format",
							"value": "1"
						},
						{
							"key": "symbol",
							"value": "USD"
						}
					]
				}
			},
			"response": []
		},
		{
			"name": "Data Fixer - Rates",
			"request": {
				"method": "GET",
				"header": [],
				"url": {
					"raw": "http://data.fixer.io/api/latest?access_key=6eca33dbfe6acfb5e4015adb035d6deb&format=1&base=USD",
					"protocol": "http",
					"host": [
						"data",
						"fixer",
						"io"
					],
					"path": [
						"api",
						"latest"
					],
					"query": [
						{
							"key": "access_key",
							"value": "6eca33dbfe6acfb5e4015adb035d6deb"
						},
						{
							"key": "format",
							"value": "1"
						},
						{
							"key": "base",
							"value": "USD"
						}
					]
				}
			},
			"response": []
		}
	]
}